{
	"info": {
		"_postman_id": "14bcc203-aa91-4527-a6ea-6941a78c7c17",
		"name": "MicroServicios - Org. Financiera",
		"schema": "https://schema.getpostman.com/json/collection/v2.0.0/collection.json",
		"_exporter_id": "25235721"
	},
	"item": [
		{
			"name": "Banco",
			"item": [
				{
					"name": "listar",
					"request": {
						"method": "GET",
						"header": [],
						"url": "http://localhost:8005/api/banco/listar"
					},
					"response": []
				},
				{
					"name": "registrar",
					"request": {
						"method": "POST",
						"header": [],
						"body": {
							"mode": "raw",
							"raw": "{\r\n    \"nombre\": \"BCP\",\r\n    \"direccion\": \"calle de BCP\",\r\n    \"active\": false\r\n}",
							"options": {
								"raw": {
									"language": "json"
								}
							}
						},
						"url": "http://localhost:8005/api/banco/registrar"
					},
					"response": []
				},
				{
					"name": "actualizar",
					"request": {
						"method": "PUT",
						"header": [],
						"body": {
							"mode": "raw",
							"raw": "{\r\n    \"nombre\": \"banco Nro 2\",\r\n    \"direccion\": \"calle2\",\r\n    \"active\": true\r\n}",
							"options": {
								"raw": {
									"language": "json"
								}
							}
						},
						"url": "http://localhost:8005/api/banco/actualizar/1"
					},
					"response": []
				},
				{
					"name": "buscar",
					"request": {
						"method": "GET",
						"header": [],
						"url": "http://localhost:8005/api/banco/buscar/2"
					},
					"response": []
				},
				{
					"name": "eliminar",
					"request": {
						"method": "DELETE",
						"header": [],
						"url": "http://localhost:8005/api/banco/eliminar/45"
					},
					"response": []
				}
			]
		},
		{
			"name": "CuentaBancaria",
			"item": [
				{
					"name": "listar",
					"request": {
						"method": "GET",
						"header": [],
						"url": "http://localhost:8004/api/cuenta/listar"
					},
					"response": []
				},
				{
					"name": "registrar",
					"request": {
						"method": "POST",
						"header": [],
						"body": {
							"mode": "raw",
							"raw": "{\r\n    \"nro_cuenta\": 1415,\r\n    \"tipo_cuenta\": \"calle2\",\r\n    \"active\" : true,\r\n    \"bancoId\": 2,\r\n    \"clienteId\" : 3\r\n}",
							"options": {
								"raw": {
									"language": "json"
								}
							}
						},
						"url": "http://localhost:8004/api/cuenta/registrar"
					},
					"response": []
				},
				{
					"name": "buscar",
					"request": {
						"method": "GET",
						"header": [],
						"url": "http://localhost:8004/api/cuenta/buscar/1"
					},
					"response": []
				},
				{
					"name": "actualizar",
					"request": {
						"method": "PUT",
						"header": [],
						"body": {
							"mode": "raw",
							"raw": "{\r\n    \"nro_cuenta\": 1415,\r\n    \"tipo_cuenta\": \"calle2\",\r\n    \"active\" : true,\r\n    \"bancoId\": 2,\r\n    \"clienteId\" : 1\r\n}",
							"options": {
								"raw": {
									"language": "json"
								}
							}
						},
						"url": "http://localhost:8004/api/cuenta/actualizar/1"
					},
					"response": []
				},
				{
					"name": "eliminar",
					"request": {
						"method": "DELETE",
						"header": [],
						"url": "http://localhost:8004/api/cuenta/eliminar/54"
					},
					"response": []
				},
				{
					"name": "obtener por BancoID",
					"request": {
						"method": "GET",
						"header": [],
						"url": "http://localhost:8004/api/cuenta/banco/2"
					},
					"response": []
				},
				{
					"name": "obtener por ClienteID",
					"request": {
						"method": "GET",
						"header": [],
						"url": "http://localhost:8004/api/cuenta/cliente/1"
					},
					"response": []
				}
			]
		},
		{
			"name": "Cliente",
			"item": [
				{
					"name": "listar",
					"request": {
						"method": "GET",
						"header": [],
						"url": "http://localhost:8003/api/cliente/listar"
					},
					"response": []
				},
				{
					"name": "registrar",
					"request": {
						"method": "POST",
						"header": [],
						"body": {
							"mode": "raw",
							"raw": "{\r\n    \"nombre\" : \"Maria\",\r\n    \"apellidos\" : \"Arteaga\",\r\n    \"sexo\" : \"M\",\r\n    \"active\" : false\r\n}",
							"options": {
								"raw": {
									"language": "json"
								}
							}
						},
						"url": "http://localhost:8003/api/cliente/registrar"
					},
					"response": []
				},
				{
					"name": "actualizar",
					"request": {
						"method": "PUT",
						"header": [],
						"body": {
							"mode": "raw",
							"raw": "{\r\n    \"nombre\" : \"Maria\",\r\n    \"apellidos\" : \"Arteaga\",\r\n    \"sexo\" : \"F\",\r\n    \"active\" : true\r\n}",
							"options": {
								"raw": {
									"language": "json"
								}
							}
						},
						"url": "http://localhost:8003/api/cliente/actualizar/2"
					},
					"response": []
				},
				{
					"name": "buscar",
					"request": {
						"method": "GET",
						"header": [],
						"url": "http://localhost:8003/api/cliente/buscar/1"
					},
					"response": []
				},
				{
					"name": "eliminar",
					"request": {
						"method": "DELETE",
						"header": [],
						"url": "http://localhost:8003/api/cliente/eliminar/2546"
					},
					"response": []
				}
			]
		},
		{
			"name": "Usuario",
			"item": [
				{
					"name": "listar",
					"request": {
						"method": "GET",
						"header": [],
						"url": "http://localhost:8002/api/usuario/listar"
					},
					"response": []
				},
				{
					"name": "registrar",
					"request": {
						"method": "POST",
						"header": [],
						"body": {
							"mode": "raw",
							"raw": "{\r\n    \"usuario\" : \"DiRenji\",\r\n    \"clave\" : \"sed651\",\r\n    \"active\" : false,\r\n    \"clienteId\" : 1\r\n}",
							"options": {
								"raw": {
									"language": "json"
								}
							}
						},
						"url": "http://localhost:8002/api/usuario/registrar"
					},
					"response": []
				},
				{
					"name": "actualizar",
					"request": {
						"method": "PUT",
						"header": [],
						"body": {
							"mode": "raw",
							"raw": "{\r\n    \"usuario\" : \"Nob666\",\r\n    \"clave\" : \"sed651\",\r\n    \"active\" : false,\r\n    \"clienteId\" : 1\r\n}",
							"options": {
								"raw": {
									"language": "json"
								}
							}
						},
						"url": "http://localhost:8002/api/usuario/actualizar/1"
					},
					"response": []
				},
				{
					"name": "buscar",
					"request": {
						"method": "GET",
						"header": [],
						"url": "http://localhost:8002/api/usuario/buscar/2"
					},
					"response": []
				},
				{
					"name": "eliminar",
					"request": {
						"method": "DELETE",
						"header": [],
						"url": "http://localhost:8002/api/usuario/eliminar/2"
					},
					"response": []
				},
				{
					"name": "obtener por ClienteID",
					"request": {
						"method": "GET",
						"header": [],
						"url": "http://localhost:8002/api/usuario/cliente/1"
					},
					"response": []
				}
			]
		}
	]
}